<?xml version="1.0" encoding="UTF-8"?>
<svg width="14px" height="24px" viewBox="0 0 14 24" version="1.1" xmlns="http://www.w3.org/2000/svg" xmlns:xlink="http://www.w3.org/1999/xlink">
    <title>Shape</title>
    <g id="Page-1" stroke="none" stroke-width="1" fill="none" fill-rule="evenodd">
        <g id="3---Insured-Data-Form" transform="translate(-643.000000, -761.000000)" fill="#999999" fill-rule="nonzero">
            <g id="Group-6-Copy-2备份-2" transform="translate(628.000000, 751.000000)">
                <path d="M28.8475293,22.5557445 C29.1204886,21.9866484 29.0308167,21.2850366 28.547287,20.8289713 L17.5274462,10.4098773 C16.9269294,9.84078111 15.9793626,9.86805337 15.4100402,10.4683316 C14.8407178,11.0686098 14.8680009,12.0158001 15.4685177,12.5848963 L25.3575364,21.9359816 L15.5075348,31.4234922 C14.9109293,31.9965302 14.8953161,32.9436885 15.4685498,33.540057 C15.7610016,33.8440898 16.1548593,34 16.5448057,34 C16.9191388,34 17.293504,33.8596969 17.5820445,33.5789945 L28.5005114,23.0585669 C28.5200039,23.0390821 28.5277945,23.0079001 28.5511983,22.9884153 C28.5668115,22.9728083 28.5823927,22.961143 28.6018852,22.945536 C28.6915572,22.8558997 28.7344535,22.7467465 28.7929311,22.6454129 C28.8085123,22.6141988 28.8358274,22.5869266 28.8475293,22.5557445 Z" id="Shape" transform="translate(22.000000, 22.000000) scale(1, -1) translate(-22.000000, -22.000000) "></path>
            </g>
        </g>
    </g>
</svg>